…
## Is there a pattern?

``` r
# canceled
(
  df.canceled = df %>% 
  group_by(day) %>% 
  summarize(canceled = sum(is.na(dep_time) == TRUE),
            total = n(),
            p = canceled/total,
            m_delay = mean(dep_delay + arr_delay, na.rm = TRUE))
 )
```

    ## # A tibble: 31 × 5
    ##      day canceled total       p m_delay
    ##    <int>    <int> <int>   <dbl>   <dbl>
    ##  1     1      246 11036 0.0223    21.5 
    ##  2     2      250 10808 0.0231    20.9 
    ##  3     3      109 11211 0.00972   15.2 
    ##  4     4       82 11059 0.00741    3.98
    ##  5     5      226 10858 0.0208     8.29
    ##  6     6      296 11059 0.0268     5.21
    ##  7     7      318 10985 0.0289    23.7 
    ##  8     8      921 11271 0.0817    40.7 
    ##  9     9      593 10857 0.0546    23.5 
    ## 10    10      535 11227 0.0477    32.7 
    ## # … with 21 more rows
    ## # ℹ Use `print(n = ...)` to see more rows
…
